1-partirore_di_tensione/giovedi 04 10/asd.csv

Record Length,2500,Points,-125.0000000E-3,-239.99999464E-3,,Record Length,2500,Points,-125.0000000E-3,0.0,
Sample Interval,99.999997474E-6,s,-124.8999983E-3,-159.99999642E-3,,Sample Interval,99.999997474E-6,s,-124.8999983E-3,0.0,
Trigger Point,1.2500001E3,Samples,-124.7999966E-3,-159.99999642E-3,,Trigger Point,1.2500001E3,Samples,-124.7999966E-3,79.999998212E-3,
,,,-124.7000024E-3,-159.99999642E-3,,,,,-124.7000024E-3,0.0,
,,,-124.6000007E-3,-79.999998212E-3,,,,,-124.6000007E-3,79.999998212E-3,
,,,-124.4999990E-3,-79.999998212E-3,,,,,-124.4999990E-3,79.999998212E-3,
Source,CH1,,-124.3999973E-3,0.0,,Source,CH2,,-124.3999973E-3,79.999998212E-3,
Vertical Units,Volts,,-124.3000031E-3,0.0,,Vertical Units,Volts,,-124.3000031E-3,0.0,
Vertical Scale,2.0000000,,-124.2000014E-3,79.999998212E-3,,Vertical Scale,2.0000000,,-124.2000014E-3,79.999998212E-3,
Vertical Offset,0,,-124.0999997E-3,79.999998212E-3,,Vertical Offset,0,,-124.0999997E-3,0.0,
Horizontal Units,s,,-123.9999980E-3,159.99999642E-3,,Horizontal Units,s,,-123.9999980E-3,0.0,
Horizontal Scale,24.99999937E-3,,-123.9000037E-3,159.99999642E-3,,Horizontal Scale,24.99999937E-3,,-123.9000037E-3,0.0,
Pt Fmt,Y,,-123.8000020E-3,239.99999464E-3,,Pt Fmt,Y,,-123.8000020E-3,0.0,
Yzero,0.0,,-123.7000003E-3,239.99999464E-3,,Yzero,0.0,,-123.7000003E-3,0.0,
Probe Atten,1.000000,,-123.5999987E-3,239.99999464E-3,,Probe Atten,1.000000,,-123.5999987E-3,0.0,
,,,-123.4999970E-3,319.99999285E-3,,,,,-123.4999970E-3,0.0,
Note,TDS 1012 - 18:25:11   04/10/2018,,-123.4000027E-3,399.99997616E-3,,Note,TDS 1012 - 18:25:11   04/10/2018,,-123.4000027E-3,79.999998212E-3,
,,,-123.3000010E-3,399.99997616E-3,,,,,-123.3000010E-3,0.0,
,,,-123.1999993E-3,479.999989271E-3,,,,,-123.1999993E-3,0.0,
,,,-123.0999976E-3,479.999989271E-3,,,,,-123.0999976E-3,0.0,
,,,-123.0000034E-3,479.999989271E-3,,,,,-123.0000034E-3,0.0,
,,,-122.9000017E-3,479.999989271E-3,,,,,-122.9000017E-3,0.0,
,,,-122.8000000E-3,560.000002384E-3,,,,,-122.8000000E-3,79.999998212E-3,
,,,-122.6999983E-3,560.000002384E-3,,,,,-122.6999983E-3,79.999998212E-3,
,,,-122.5999966E-3,639.999985695E-3,,,,,-122.5999966E-3,0.0,
,,,-122.5000024E-3,719.999969006E-3,,,,,-122.5000024E-3,79.999998212E-3,
,,,-122.4000007E-3,719.999969006E-3,,,,,-122.4000007E-3,0.0,
,,,-122.2999990E-3,719.999969006E-3,,,,,-122.2999990E-3,79.999998212E-3,
,,,-122.1999973E-3,799.999952316E-3,,,,,-122.1999973E-3,79.999998212E-3,
,,,-122.1000031E-3,799.999952316E-3,,,,,-122.1000031E-3,0.0,
,,,-122.0000014E-3,879.999995232E-3,,,,,-122.0000014E-3,79.999998212E-3,
,,,-121.8999997E-3,879.999995232E-3,,,,,-121.8999997E-3,0.0,
,,,-121.7999980E-3,959.999978542E-3,,,,,-121.7999980E-3,0.0,
,,,-121.7000037E-3,959.999978542E-3,,,,,-121.7000037E-3,0.0,
,,,-121.6000021E-3,959.999978542E-3,,,,,-121.6000021E-3,79.999998212E-3,
,,,-121.5000004E-3,1.0400000,,,,,-121.5000004E-3,79.999998212E-3,
,,,-121.3999987E-3,1.0400000,,,,,-121.3999987E-3,0.0,
,,,-121.2999970E-3,1.1200000,,,,,-121.2999970E-3,79.999998212E-3,
,,,-121.2000027E-3,1.1999999,,,,,-121.2000027E-3,0.0,
,,,-121.1000010E-3,1.1999999,,,,,-121.1000010E-3,0.0,
,,,-120.9999993E-3,1.1999999,,,,,-120.9999993E-3,0.0,
,,,-120.8999977E-3,1.2800000,,,,,-120.8999977E-3,79.999998212E-3,
,,,-120.8000034E-3,1.2800000,,,,,-120.8000034E-3,79.999998212E-3,
,,,-120.7000017E-3,1.3600000,,,,,-120.7000017E-3,0.0,
,,,-120.6000000E-3,1.3600000,,,,,-120.6000000E-3,0.0,
,,,-120.4999983E-3,1.4399999,,,,,-120.4999983E-3,0.0,
,,,-120.3999966E-3,1.4399999,,,,,-120.3999966E-3,79.999998212E-3,
,,,-120.3000024E-3,1.4399999,,,,,-120.3000024E-3,79.999998212E-3,
,,,-120.2000007E-3,1.5200000,,,,,-120.2000007E-3,79.999998212E-3,
,,,-120.0999990E-3,1.5200000,,,,,-120.0999990E-3,0.0,
,,,-119.9999973E-3,1.5999999,,,,,-119.9999973E-3,0.0,
,,,-119.9000031E-3,1.5999999,,,,,-119.9000031E-3,0.0,
,,,-119.8000014E-3,1.5999999,,,,,-119.8000014E-3,0.0,
,,,-119.6999997E-3,1.6799999,,,,,-119.6999997E-3,79.999998212E-3,
,,,-119.5999980E-3,1.6799999,,,,,-119.5999980E-3,79.999998212E-3,
,,,-119.5000038E-3,1.7600000,,,,,-119.5000038E-3,0.0,
,,,-119.4000021E-3,1.8399999,,,,,-119.4000021E-3,79.999998212E-3,
,,,-119.3000004E-3,1.8399999,,,,,-119.3000004E-3,0.0,
,,,-119.1999987E-3,1.8399999,,,,,-119.1999987E-3,0.0,
,,,-119.0999970E-3,1.9200000,,,,,-119.0999970E-3,79.999998212E-3,
,,,-119.0000027E-3,2.0000000,,,,,-119.0000027E-3,79.999998212E-3,
,,,-118.9000010E-3,2.0000000,,,,,-118.9000010E-3,0.0,
,,,-118.7999994E-3,2.0000000,,,,,-118.7999994E-3,79.999998212E-3,
,,,-118.6999977E-3,2.0799999,,,,,-118.6999977E-3,79.999998212E-3,
,,,-118.6000034E-3,2.0000000,,,,,-118.6000034E-3,0.0,
,,,-118.5000017E-3,2.1599998,,,,,-118.5000017E-3,79.999998212E-3,
,,,-118.4000000E-3,2.1599998,,,,,-118.4000000E-3,79.999998212E-3,
,,,-118.2999983E-3,2.1599998,,,,,-118.2999983E-3,79.999998212E-3,
,,,-118.1999967E-3,2.1599998,,,,,-118.1999967E-3,79.999998212E-3,
,,,-118.1000024E-3,2.2400000,,,,,-118.1000024E-3,79.999998212E-3,
,,,-118.0000007E-3,2.2400000,,,,,-118.0000007E-3,0.0,
,,,-117.8999990E-3,2.3199999,,,,,-117.8999990E-3,79.999998212E-3,
,,,-117.7999973E-3,2.3199999,,,,,-117.7999973E-3,79.999998212E-3,
,,,-117.7000031E-3,2.3999999,,,,,-117.7000031E-3,79.999998212E-3,
,,,-117.6000014E-3,2.4800000,,,,,-117.6000014E-3,79.999998212E-3,
,,,-117.4999997E-3,2.4800000,,,,,-117.4999997E-3,79.999998212E-3,
,,,-117.3999980E-3,2.4800000,,,,,-117.3999980E-3,79.999998212E-3,
,,,-117.3000038E-3,2.4800000,,,,,-117.3000038E-3,0.0,
,,,-117.2000021E-3,2.4800000,,,,,-117.2000021E-3,0.0,
,,,-117.1000004E-3,2.6399999,,,,,-117.1000004E-3,0.0,
,,,-116.9999987E-3,2.5599999,,,,,-116.9999987E-3,0.0,
,,,-116.8999970E-3,2.6399999,,,,,-116.8999970E-3,79.999998212E-3,
,,,-116.8000028E-3,2.72000003,,,,,-116.8000028E-3,79.999998212E-3,
,,,-116.7000011E-3,2.72000003,,,,,-116.7000011E-3,0.0,
,,,-116.5999994E-3,2.72000003,,,,,-116.5999994E-3,79.999998212E-3,
,,,-116.4999977E-3,2.79999995,,,,,-116.4999977E-3,79.999998212E-3,
,,,-116.4000034E-3,2.72000003,,,,,-116.4000034E-3,79.999998212E-3,
,,,-116.3000017E-3,2.79999995,,,,,-116.3000017E-3,0.0,
,,,-116.2000000E-3,2.87999988,,,,,-116.2000000E-3,0.0,
,,,-116.0999984E-3,2.96000004,,,,,-116.0999984E-3,79.999998212E-3,
,,,-115.9999967E-3,2.96000004,,,,,-115.9999967E-3,0.0,
,,,-115.9000024E-3,2.96000004,,,,,-115.9000024E-3,0.0,
,,,-115.8000007E-3,2.96000004,,,,,-115.8000007E-3,79.999998212E-3,
,,,-115.6999990E-3,3.03999996,,,,,-115.6999990E-3,79.999998212E-3,
,,,-115.5999973E-3,3.03999996,,,,,-115.5999973E-3,79.999998212E-3,
,,,-115.5000031E-3,3.03999996,,,,,-115.5000031E-3,79.999998212E-3,
,,,-115.4000014E-3,3.11999989,,,,,-115.4000014E-3,79.999998212E-3,
,,,-115.2999997E-3,3.11999989,,,,,-115.2999997E-3,0.0,
,,,-115.1999980E-3,3.11999989,,,,,-115.1999980E-3,79.999998212E-3,
,,,-115.1000038E-3,3.19999981,,,,,-115.1000038E-3,79.999998212E-3,
,,,-115.0000021E-3,3.19999981,,,,,-115.0000021E-3,0.0,
,,,-114.9000004E-3,3.19999981,,,,,-114.9000004E-3,79.999998212E-3,
,,,-114.7999987E-3,3.27999997,,,,,-114.7999987E-3,79.999998212E-3,
,,,-114.6999970E-3,3.27999997,,,,,-114.6999970E-3,79.999998212E-3,
,,,-114.6000028E-3,3.35999990,,,,,-114.6000028E-3,0.0,
,,,-114.5000011E-3,3.35999990,,,,,-114.5000011E-3,79.999998212E-3,
,,,-114.3999994E-3,3.43999982,,,,,-114.3999994E-3,79.999998212E-3,
,,,-114.2999977E-3,3.43999982,,,,,-114.2999977E-3,79.999998212E-3,
,,,-114.2000034E-3,3.43999982,,,,,-114.2000034E-3,0.0,
,,,-114.1000018E-3,3.51999998,,,,,-114.1000018E-3,0.0,
,,,-114.0000001E-3,3.59999990,,,,,-114.0000001E-3,79.999998212E-3,
,,,-113.8999984E-3,3.51999998,,,,,-113.8999984E-3,0.0,
,,,-113.7999967E-3,3.59999990,,,,,-113.7999967E-3,0.0,
,,,-113.7000024E-3,3.67999983,,,,,-113.7000024E-3,79.999998212E-3,
,,,-113.6000007E-3,3.59999990,,,,,-113.6000007E-3,79.999998212E-3,
,,,-113.4999990E-3,3.67999983,,,,,-113.4999990E-3,0.0,
,,,-113.3999974E-3,3.67999983,,,,,-113.3999974E-3,0.0,
,,,-113.3000031E-3,3.75999999,,,,,-113.3000031E-3,0.0,
,,,-113.2000014E-3,3.75999999,,,,,-113.2000014E-3,0.0,
,,,-113.0999997E-3,3.75999999,,,,,-113.0999997E-3,0.0,
,,,-112.9999980E-3,3.83999991,,,,,-112.9999980E-3,79.999998212E-3,
,,,-112.9000038E-3,3.83999991,,,,,-112.9000038E-3,79.999998212E-3,
,,,-112.8000021E-3,3.83999991,,,,,-112.8000021E-3,79.999998212E-3,
,,,-112.7000004E-3,3.91999984,,,,,-112.7000004E-3,0.0,
,,,-112.5999987E-3,3.91999984,,,,,-112.5999987E-3,0.0,
,,,-112.4999970E-3,4.00000000,,,,,-112.4999970E-3,0.0,
,,,-112.4000028E-3,4.00000000,,,,,-112.4000028E-3,0.0,
,,,-112.3000011E-3,4.00000000,,,,,-112.3000011E-3,79.999998212E-3,
,,,-112.1999994E-3,4.00000000,,,,,-112.1999994E-3,79.999998212E-3,
,,,-112.0999977E-3,4.07999992,,,,,-112.0999977E-3,79.999998212E-3,
,,,-112.0000035E-3,4.07999992,,,,,-112.0000035E-3,79.999998212E-3,
,,,-111.9000018E-3,4.07999992,,,,,-111.9000018E-3,79.999998212E-3,
,,,-111.8000001E-3,4.15999985,,,,,-111.8000001E-3,0.0,
,,,-111.6999984E-3,4.15999985,,,,,-111.6999984E-3,0.0,
,,,-111.5999967E-3,4.15999985,,,,,-111.5999967E-3,79.999998212E-3,
,,,-111.5000024E-3,4.15999985,,,,,-111.5000024E-3,0.0,
,,,-111.4000008E-3,4.23999977,,,,,-111.4000008E-3,0.0,
,,,-111.2999991E-3,4.23999977,,,,,-111.2999991E-3,0.0,
,,,-111.1999974E-3,4.23999977,,,,,-111.1999974E-3,-79.999998212E-3,
,,,-111.1000031E-3,4.31999969,,,,,-111.1000031E-3,79.999998212E-3,
,,,-111.0000014E-3,4.31999969,,,,,-111.0000014E-3,79.999998212E-3,
,,,-110.8999997E-3,4.31999969,,,,,-110.8999997E-3,0.0,
,,,-110.7999980E-3,4.31999969,,,,,-110.7999980E-3,0.0,
,,,-110.7000038E-3,4.31999969,,,,,-110.7000038E-3,0.0,
,,,-110.6000021E-3,4.40000010,,,,,-110.6000021E-3,0.0,
,,,-110.5000004E-3,4.40000010,,,,,-110.5000004E-3,79.999998212E-3,
,,,-110.3999987E-3,4.48000002,,,,,-110.3999987E-3,79.999998212E-3,
,,,-110.2999970E-3,4.48000002,,,,,-110.2999970E-3,0.0,
,,,-110.2000028E-3,4.55999994,,,,,-110.2000028E-3,0.0,
,,,-110.1000011E-3,4.48000002,,,,,-110.1000011E-3,0.0,
,,,-109.9999994E-3,4.48000002,,,,,-109.9999994E-3,0.0,
,,,-109.8999977E-3,4.55999994,,,,,-109.8999977E-3,0.0,
,,,-109.8000035E-3,4.55999994,,,,,-109.8000035E-3,79.999998212E-3,
,,,-109.7000018E-3,4.55999994,,,,,-109.7000018E-3,0.0,
,,,-109.6000001E-3,4.55999994,,,,,-109.6000001E-3,0.0,
,,,-109.4999984E-3,4.63999987,,,,,-109.4999984E-3,0.0,
,,,-109.3999967E-3,4.63999987,,,,,-109.3999967E-3,0.0,
,,,-109.3000025E-3,4.71999979,,,,,-109.3000025E-3,79.999998212E-3,
,,,-109.2000008E-3,4.71999979,,,,,-109.2000008E-3,79.999998212E-3,
,,,-109.0999991E-3,4.71999979,,,,,-109.0999991E-3,0.0,
,,,-108.9999974E-3,4.79999971,,,,,-108.9999974E-3,79.999998212E-3,
,,,-108.9000031E-3,4.79999971,,,,,-108.9000031E-3,0.0,
,,,-108.8000014E-3,4.79999971,,,,,-108.8000014E-3,0.0,
,,,-108.6999997E-3,4.79999971,,,,,-108.6999997E-3,0.0,
,,,-108.5999981E-3,4.88000011,,,,,-108.5999981E-3,79.999998212E-3,
,,,-108.5000038E-3,4.88000011,,,,,-108.5000038E-3,79.999998212E-3,
,,,-108.4000021E-3,4.88000011,,,,,-108.4000021E-3,0.0,
,,,-108.3000004E-3,4.96000004,,,,,-108.3000004E-3,79.999998212E-3,
,,,-108.1999987E-3,4.96000004,,,,,-108.1999987E-3,79.999998212E-3,
,,,-108.0999970E-3,4.96000004,,,,,-108.0999970E-3,0.0,
,,,-108.0000028E-3,4.96000004,,,,,-108.0000028E-3,79.999998212E-3,
,,,-107.9000011E-3,5.03999996,,,,,-107.9000011E-3,79.999998212E-3,
,,,-107.7999994E-3,5.03999996,,,,,-107.7999994E-3,79.999998212E-3,
,,,-107.6999977E-3,5.03999996,,,,,-107.6999977E-3,0.0,
,,,-107.6000035E-3,5.03999996,,,,,-107.6000035E-3,0.0,
,,,-107.5000018E-3,5.03999996,,,,,-107.5000018E-3,79.999998212E-3,
,,,-107.4000001E-3,5.03999996,,,,,-107.4000001E-3,79.999998212E-3,
,,,-107.2999984E-3,5.03999996,,,,,-107.2999984E-3,79.999998212E-3,
,,,-107.2000042E-3,5.11999989,,,,,-107.2000042E-3,0.0,
,,,-107.1000025E-3,5.19999981,,,,,-107.1000025E-3,0.0,
,,,-107.0000008E-3,5.11999989,,,,,-107.0000008E-3,0.0,
,,,-106.8999991E-3,5.19999981,,,,,-106.8999991E-3,79.999998212E-3,
,,,-106.7999974E-3,5.19999981,,,,,-106.7999974E-3,0.0,
,,,-106.7000031E-3,5.19999981,,,,,-106.7000031E-3,79.999998212E-3,
,,,-106.6000015E-3,5.19999981,,,,,-106.6000015E-3,0.0,
,,,-106.4999998E-3,5.27999973,,,,,-106.4999998E-3,0.0,
,,,-106.3999981E-3,5.19999981,,,,,-106.3999981E-3,79.999998212E-3,
,,,-106.3000038E-3,5.27999973,,,,,-106.3000038E-3,0.0,
,,,-106.2000021E-3,5.27999973,,,,,-106.2000021E-3,0.0,
,,,-106.1000004E-3,5.35999966,,,,,-106.1000004E-3,79.999998212E-3,
,,,-105.9999987E-3,5.27999973,,,,,-105.9999987E-3,0.0,
,,,-105.8999971E-3,5.35999966,,,,,-105.8999971E-3,0.0,
,,,-105.8000028E-3,5.35999966,,,,,-105.8000028E-3,0.0,
,,,-105.7000011E-3,5.35999966,,,,,-105.7000011E-3,0.0,
,,,-105.5999994E-3,5.35999966,,,,,-105.5999994E-3,0.0,
,,,-105.4999977E-3,5.35999966,,,,,-105.4999977E-3,0.0,
,,,-105.4000035E-3,5.44000006,,,,,-105.4000035E-3,79.999998212E-3,
,,,-105.3000018E-3,5.44000006,,,,,-105.3000018E-3,79.999998212E-3,
,,,-105.2000001E-3,5.35999966,,,,,-105.2000001E-3,0.0,
,,,-105.0999984E-3,5.44000006,,,,,-105.0999984E-3,79.999998212E-3,
,,,-105.0000042E-3,5.51999998,,,,,-105.0000042E-3,79.999998212E-3,
,,,-104.9000025E-3,5.44000006,,,,,-104.9000025E-3,79.999998212E-3,
,,,-104.8000008E-3,5.51999998,,,,,-104.8000008E-3,0.0,
,,,-104.6999991E-3,5.44000006,,,,,-104.6999991E-3,0.0,
,,,-104.5999974E-3,5.51999998,,,,,-104.5999974E-3,79.999998212E-3,
,,,-104.5000032E-3,5.51999998,,,,,-104.5000032E-3,0.0,
,,,-104.4000015E-3,5.51999998,,,,,-104.4000015E-3,0.0,
,,,-104.2999998E-3,5.51999998,,,,,-104.2999998E-3,79.999998212E-3,
,,,-104.1999981E-3,5.51999998,,,,,-104.1999981E-3,0.0,
,,,-104.1000038E-3,5.51999998,,,,,-104.1000038E-3,0.0,
,,,-104.0000021E-3,5.51999998,,,,,-104.0000021E-3,79.999998212E-3,
,,,-103.9000005E-3,5.51999998,,,,,-103.9000005E-3,0.0,
,,,-103.7999988E-3,5.59999990,,,,,-103.7999988E-3,0.0,
,,,-103.6999971E-3,5.59999990,,,,,-103.6999971E-3,0.0,
,,,-103.6000028E-3,5.59999990,,,,,-103.6000028E-3,79.999998212E-3,
,,,-103.5000011E-3,5.59999990,,,,,-103.5000011E-3,0.0,
,,,-103.3999994E-3,5.59999990,,,,,-103.3999994E-3,79.999998212E-3,
,,,-103.2999977E-3,5.59999990,,,,,-103.2999977E-3,0.0,
,,,-103.2000035E-3,5.59999990,,,,,-103.2000035E-3,79.999998212E-3,
,,,-103.1000018E-3,5.67999983,,,,,-103.1000018E-3,79.999998212E-3,
,,,-103.0000001E-3,5.67999983,,,,,-103.0000001E-3,0.0,
,,,-102.8999984E-3,5.67999983,,,,,-102.8999984E-3,0.0,
,,,-102.8000042E-3,5.67999983,,,,,-102.8000042E-3,0.0,
,,,-102.7000025E-3,5.59999990,,,,,-102.7000025E-3,79.999998212E-3,
,,,-102.6000008E-3,5.67999983,,,,,-102.6000008E-3,0.0,
,,,-102.4999991E-3,5.67999983,,,,,-102.4999991E-3,0.0,
,,,-102.3999974E-3,5.67999983,,,,,-102.3999974E-3,0.0,
,,,-102.3000032E-3,5.75999975,,,,,-102.3000032E-3,0.0,
,,,-102.2000015E-3,5.59999990,,,,,-102.2000015E-3,0.0,
,,,-102.0999998E-3,5.75999975,,,,,-102.0999998E-3,0.0,
,,,-101.9999981E-3,5.75999975,,,,,-101.9999981E-3,0.0,
,,,-101.9000039E-3,5.67999983,,,,,-101.9000039E-3,79.999998212E-3,
,,,-101.8000022E-3,5.67999983,,,,,-101.8000022E-3,0.0,
,,,-101.7000005E-3,5.67999983,,,,,-101.7000005E-3,79.999998212E-3,
,,,-101.5999988E-3,5.67999983,,,,,-101.5999988E-3,0.0,
,,,-101.4999971E-3,5.67999983,,,,,-101.4999971E-3,79.999998212E-3,
,,,-101.4000028E-3,5.75999975,,,,,-101.4000028E-3,0.0,
,,,-101.3000011E-3,5.75999975,,,,,-101.3000011E-3,0.0,
,,,-101.1999995E-3,5.75999975,,,,,-101.1999995E-3,0.0,
,,,-101.0999978E-3,5.75999975,,,,,-101.0999978E-3,79.999998212E-3,
,,,-101.0000035E-3,5.75999975,,,,,-101.0000035E-3,79.999998212E-3,
,,,-100.9000018E-3,5.75999975,,,,,-100.9000018E-3,79.999998212E-3,
,,,-100.8000001E-3,5.75999975,,,,,-100.8000001E-3,0.0,
,,,-100.6999984E-3,5.75999975,,,,,-100.6999984E-3,0.0,
,,,-100.6000042E-3,5.75999975,,,,,-100.6000042E-3,79.999998212E-3,
,,,-100.5000025E-3,5.75999975,,,,,-100.5000025E-3,79.999998212E-3,
,,,-100.4000008E-3,5.75999975,,,,,-100.4000008E-3,0.0,
,,,-100.2999991E-3,5.75999975,,,,,-100.2999991E-3,79.999998212E-3,
,,,-100.1999974E-3,5.75999975,,,,,-100.1999974E-3,0.0,
,,,-100.1000032E-3,5.75999975,,,,,-100.1000032E-3,79.999998212E-3,
,,,-100.0000015E-3,5.75999975,,,,,-100.0000015E-3,0.0,
,,,-99.899999797E-3,5.75999975,,,,,-99.899999797E-3,0.0,
,,,-99.799998105E-3,5.75999975,,,,,-99.799998105E-3,79.999998212E-3,
,,,-99.700003862E-3,5.75999975,,,,,-99.700003862E-3,5.11999989,
,,,-99.600002170E-3,5.75999975,,,,,-99.600002170E-3,5.11999989,
,,,-99.500000477E-3,5.75999975,,,,,-99.500000477E-3,5.11999989,
,,,-99.399998784E-3,5.75999975,,,,,-99.399998784E-3,5.11999989,
,,,-99.299997091E-3,5.75999975,,,,,-99.299997091E-3,5.11999989,
,,,-99.200002849E-3,5.75999975,,,,,-99.200002849E-3,5.11999989,
,,,-99.100001156E-3,5.75999975,,,,,-99.100001156E-3,5.11999989,
,,,-98.999999464E-3,5.75999975,,,,,-98.999999464E-3,5.11999989,
,,,-98.899997771E-3,5.75999975,,,,,-98.899997771E-3,5.11999989,
,,,-98.800003529E-3,5.75999975,,,,,-98.800003529E-3,5.11999989,
,,,-98.700001836E-3,5.75999975,,,,,-98.700001836E-3,5.11999989,
,,,-98.600000143E-3,5.75999975,,,,,-98.600000143E-3,5.11999989,
,,,-98.499998450E-3,5.75999975,,,,,-98.499998450E-3,5.11999989,
,,,-98.400004208E-3,5.75999975,,,,,-98.400004208E-3,5.11999989,
,,,-98.300002515E-3,5.75999975,,,,,-98.300002515E-3,5.11999989,
,,,-98.200000823E-3,5.75999975,,,,,-98.200000823E-3,5.11999989,
,,,-98.099999130E-3,5.75999975,,,,,-98.099999130E-3,5.19999981,
,,,-97.999997437E-3,5.75999975,,,,,-97.999997437E-3,5.11999989,
,,,-97.900003195E-3,5.75999975,,,,,-97.900003195E-3,5.11999989,
,,,-97.800001502E-3,5.75999975,,,,,-97.800001502E-3,5.19999981,
,,,-97.699999809E-3,5.67999983,,,,,-97.699999809E-3,5.11999989,
,,,-97.599998116E-3,5.67999983,,,,,-97.599998116E-3,5.11999989,
,,,-97.500003874E-3,5.67999983,,,,,-97.500003874E-3,5.11999989,
,,,-97.400002182E-3,5.67999983,,,,,-97.400002182E-3,5.11999989,
,,,-97.300000489E-3,5.67999983,,,,,-97.300000489E-3,5.11999989,
,,,-97.199998796E-3,5.67999983,,,,,-97.199998796E-3,5.19999981,
,,,-97.099997103E-3,5.67999983,,,,,-97.099997103E-3,5.11999989,
,,,-97.000002861E-3,5.67999983,,,,,-97.000002861E-3,5.19999981,
,,,-96.900001168E-3,5.67999983,,,,,-96.900001168E-3,5.11999989,
,,,-96.799999475E-3,5.67999983,,,,,-96.799999475E-3,5.11999989,
,,,-96.699997783E-3,5.67999983,,,,,-96.699997783E-3,5.11999989,
,,,-96.600003541E-3,5.59999990,,,,,-96.600003541E-3,5.19999981,
,,,-96.500001848E-3,5.67999983,,,,,-96.500001848E-3,5.11999989,
,,,-96.400000155E-3,5.67999983,,,,,-96.400000155E-3,5.11999989,
,,,-96.299998462E-3,5.59999990,,,,,-96.299998462E-3,5.11999989,
,,,-96.200004220E-3,5.59999990,,,,,-96.200004220E-3,5.11999989,
,,,-96.100002527E-3,5.59999990,,,,,-96.100002527E-3,5.19999981,
,,,-96.000000834E-3,5.59999990,,,,,-96.000000834E-3,5.19999981,
,,,-95.899999142E-3,5.59999990,,,,,-95.899999142E-3,5.11999989,
,,,-95.799997449E-3,5.51999998,,,,,-95.799997449E-3,5.11999989,
,,,-95.700003207E-3,5.51999998,,,,,-95.700003207E-3,5.19999981,
,,,-95.600001514E-3,5.51999998,,,,,-95.600001514E-3,5.11999989,
,,,-95.499999821E-3,5.51999998,,,,,-95.499999821E-3,5.11999989,
,,,-95.399998128E-3,5.51999998,,,,,-95.399998128E-3,5.11999989,
,,,-95.300003886E-3,5.51999998,,,,,-95.300003886E-3,5.11999989,
,,,-95.200002193E-3,5.51999998,,,,,-95.200002193E-3,5.11999989,
,,,-95.100000501E-3,5.51999998,,,,,-95.100000501E-3,5.11999989,
,,,-94.999998808E-3,5.51999998,,,,,-94.999998808E-3,5.11999989,
,,,-94.899997115E-3,5.51999998,,,,,-94.899997115E-3,5.11999989,
,,,-94.800002873E-3,5.51999998,,,,,-94.800002873E-3,5.11999989,
,,,-94.700001180E-3,5.51999998,,,,,-94.700001180E-3,5.11999989,
,,,-94.599999487E-3,5.51999998,,,,,-94.599999487E-3,5.11999989,
,,,-94.499997795E-3,5.51999998,,,,,-94.499997795E-3,5.11999989,
,,,-94.400003552E-3,5.44000006,,,,,-94.400003552E-3,5.11999989,
,,,-94.300001860E-3,5.44000006,,,,,-94.300001860E-3,5.11999989,
,,,-94.200000167E-3,5.44000006,,,,,-94.200000167E-3,5.11999989,
,,,-94.099998474E-3,5.44000006,,,,,-94.099998474E-3,5.19999981,
,,,-94.000004232E-3,5.44000006,,,,,-94.000004232E-3,5.11999989,
,,,-93.900002539E-3,5.44000006,,,,,-93.900002539E-3,5.11999989,
,,,-93.800000846E-3,5.35999966,,,,,-93.800000846E-3,5.11999989,
,,,-93.699999154E-3,5.35999966,,,,,-93.699999154E-3,5.11999989,
,,,-93.599997461E-3,5.35999966,,,,,-93.599997461E-3,5.11999989,
